Memoria/13.1Output_ports/13.1Output_ports/simulation/qsim/Output_ports.msim.vcd
$comment
	File created using the following command:
		vcd file Output_ports.msim.vcd -direction
$end
$date
	Fri May 24 21:24:28 2024
$end
$version
	ModelSim Version 10.1d
$end
$timescale
	1ps
$end
$scope module Output_ports_vlg_vec_tst $end
$var reg 8 ! address [7:0] $end
$var reg 1 " clock $end
$var reg 8 # data_in [7:0] $end
$var reg 1 $ reset $end
$var reg 1 % writen $end
$var wire 1 & port_out_00 [7] $end
$var wire 1 ' port_out_00 [6] $end
$var wire 1 ( port_out_00 [5] $end
$var wire 1 ) port_out_00 [4] $end
$var wire 1 * port_out_00 [3] $end
$var wire 1 + port_out_00 [2] $end
$var wire 1 , port_out_00 [1] $end
$var wire 1 - port_out_00 [0] $end
$var wire 1 . port_out_01 [7] $end
$var wire 1 / port_out_01 [6] $end
$var wire 1 0 port_out_01 [5] $end
$var wire 1 1 port_out_01 [4] $end
$var wire 1 2 port_out_01 [3] $end
$var wire 1 3 port_out_01 [2] $end
$var wire 1 4 port_out_01 [1] $end
$var wire 1 5 port_out_01 [0] $end
$var wire 1 6 sampler $end
$scope module i1 $end
$var wire 1 7 gnd $end
$var wire 1 8 vcc $end
$var wire 1 9 unknown $end
$var tri1 1 : devclrn $end
$var tri1 1 ; devpor $end
$var tri1 1 < devoe $end
$var wire 1 = port_out_01[0]~output_o $end
$var wire 1 > port_out_01[1]~output_o $end
$var wire 1 ? port_out_01[2]~output_o $end
$var wire 1 @ port_out_01[3]~output_o $end
$var wire 1 A port_out_01[4]~output_o $end
$var wire 1 B port_out_01[5]~output_o $end
$var wire 1 C port_out_01[6]~output_o $end
$var wire 1 D port_out_01[7]~output_o $end
$var wire 1 E port_out_00[0]~output_o $end
$var wire 1 F port_out_00[1]~output_o $end
$var wire 1 G port_out_00[2]~output_o $end
$var wire 1 H port_out_00[3]~output_o $end
$var wire 1 I port_out_00[4]~output_o $end
$var wire 1 J port_out_00[5]~output_o $end
$var wire 1 K port_out_00[6]~output_o $end
$var wire 1 L port_out_00[7]~output_o $end
$var wire 1 M clock~input_o $end
$var wire 1 N clock~inputclkctrl_outclk $end
$var wire 1 O data_in[0]~input_o $end
$var wire 1 P port_out_01[0]~reg0feeder_combout $end
$var wire 1 Q reset~input_o $end
$var wire 1 R reset~inputclkctrl_outclk $end
$var wire 1 S address[0]~input_o $end
$var wire 1 T address[5]~input_o $end
$var wire 1 U address[7]~input_o $end
$var wire 1 V writen~input_o $end
$var wire 1 W address[6]~input_o $end
$var wire 1 X U3~1_combout $end
$var wire 1 Y address[4]~input_o $end
$var wire 1 Z address[1]~input_o $end
$var wire 1 [ address[3]~input_o $end
$var wire 1 \ address[2]~input_o $end
$var wire 1 ] U3~0_combout $end
$var wire 1 ^ U4~0_combout $end
$var wire 1 _ port_out_01[0]~reg0_q $end
$var wire 1 ` data_in[1]~input_o $end
$var wire 1 a port_out_01[1]~reg0feeder_combout $end
$var wire 1 b port_out_01[1]~reg0_q $end
$var wire 1 c data_in[2]~input_o $end
$var wire 1 d port_out_01[2]~reg0feeder_combout $end
$var wire 1 e port_out_01[2]~reg0_q $end
$var wire 1 f data_in[3]~input_o $end
$var wire 1 g port_out_01[3]~reg0_q $end
$var wire 1 h data_in[4]~input_o $end
$var wire 1 i port_out_01[4]~reg0_q $end
$var wire 1 j data_in[5]~input_o $end
$var wire 1 k port_out_01[5]~reg0_q $end
$var wire 1 l data_in[6]~input_o $end
$var wire 1 m port_out_01[6]~reg0feeder_combout $end
$var wire 1 n port_out_01[6]~reg0_q $end
$var wire 1 o data_in[7]~input_o $end
$var wire 1 p port_out_01[7]~reg0feeder_combout $end
$var wire 1 q port_out_01[7]~reg0_q $end
$var wire 1 r port_out_00[0]~reg0feeder_combout $end
$var wire 1 s U3~2_combout $end
$var wire 1 t port_out_00[0]~reg0_q $end
$var wire 1 u port_out_00[1]~reg0feeder_combout $end
$var wire 1 v port_out_00[1]~reg0_q $end
$var wire 1 w port_out_00[2]~reg0feeder_combout $end
$var wire 1 x port_out_00[2]~reg0_q $end
$var wire 1 y port_out_00[3]~reg0_q $end
$var wire 1 z port_out_00[4]~reg0_q $end
$var wire 1 { port_out_00[5]~reg0_q $end
$var wire 1 | port_out_00[6]~reg0feeder_combout $end
$var wire 1 } port_out_00[6]~reg0_q $end
$var wire 1 ~ port_out_00[7]~reg0feeder_combout $end
$var wire 1 !! port_out_00[7]~reg0_q $end
$upscope $end
$upscope $end
$enddefinitions $end
#0
$dumpvars
b110000 !
0"
b10100000 #
1$
1%
0-
0,
0+
0*
0)
0(
0'
0&
05
04
03
02
01
00
0/
0.
x6
07
18
x9
1:
1;
1<
0=
0>
0?
0@
0A
0B
0C
0D
0E
0F
0G
0H
0I
0J
0K
0L
0M
0N
0O
0P
1Q
1R
0S
1T
0U
1V
0W
0X
1Y
0Z
0[
0\
0]
0^
0_
0`
0a
0b
0c
0d
0e
0f
0g
0h
0i
1j
0k
0l
0m
0n
1o
1p
0q
0r
0s
0t
0u
0v
0w
0x
0y
0z
0{
0|
0}
1~
0!!
$end
#10000
b10100001 #
1O
06
1r
1P
#15000
1"
1M
1N
16
#20000
b10100011 #
b10100010 #
0O
1`
06
0r
0P
1u
1a
#30000
b110001 !
0"
b10100011 #
0M
1O
1S
0N
16
1r
1P
#40000
b10100111 #
b10100101 #
b10100100 #
0O
0`
1c
06
0r
0P
0u
0a
1w
1d
#45000
1"
1M
1N
16
#50000
b10100101 #
1O
06
1r
1P
#60000
b110011 !
b110010 !
b10100111 #
0"
b10100110 #
0O
1`
0S
1Z
0M
0N
16
0r
0P
1u
1a
#70000
b10100111 #
1O
06
1r
1P
#75000
1"
1M
1N
16
#80000
b10101111 #
b10101011 #
b10101001 #
b10101000 #
0O
0`
0c
1f
06
0r
0P
0u
0a
0w
0d
#90000
b110011 !
0"
b10101001 #
0M
1O
1S
0N
16
1r
1P
#100000
b10101011 #
b10101010 #
0O
1`
06
0r
0P
1u
1a
#105000
1"
1M
1N
16
#110000
b10101011 #
1O
06
1r
1P
#120000
b110111 !
b110101 !
b10101111 #
b110100 !
b10101101 #
0"
b10101100 #
0O
0`
1c
0S
0Z
1\
0M
0N
16
0r
0P
0u
0a
1w
1d
#130000
b10101101 #
1O
06
1r
1P
#135000
1"
1M
1N
16
#140000
b10101111 #
b10101110 #
0O
1`
06
0r
0P
1u
1a
#150000
0%
b110000 !
0"
b10101111 #
0V
0M
1O
0\
0N
16
1r
1P
#160000
b10111111 #
b10110111 #
b10110011 #
b10110001 #
b10110000 #
0O
0`
0c
0f
1h
06
0r
0P
0u
0a
0w
0d
#165000
1"
1M
1N
16
#170000
b10110001 #
1O
06
1r
1P
#180000
b110001 !
b10110011 #
0"
b10110010 #
0O
1`
1S
0M
0N
16
0r
0P
1u
1a
#190000
b10110011 #
1O
06
1r
1P
#195000
1"
1M
1N
16
#200000
b10110111 #
b10110101 #
b10110100 #
0O
0`
1c
06
0r
0P
0u
0a
1w
1d
#210000
b110011 !
b110010 !
0"
b10110101 #
0M
1O
0S
1Z
0N
16
1r
1P
#220000
b10110111 #
b10110110 #
0O
1`
06
0r
0P
1u
1a
#225000
1"
1M
1N
16
#230000
b10110111 #
1O
06
1r
1P
#240000
b10111111 #
b10111011 #
b110011 !
b10111001 #
0"
b10111000 #
1S
0O
0`
0c
1f
0M
0N
16
0r
0P
0u
0a
0w
0d
#250000
b10111001 #
1O
06
1r
1P
#255000
1"
1M
1N
16
#260000
b10111011 #
b10111010 #
0O
1`
06
0r
0P
1u
1a
#270000
b110111 !
b110101 !
b110100 !
0"
b10111011 #
0M
1O
0S
0Z
1\
0N
16
1r
1P
#280000
b10111111 #
b10111101 #
b10111100 #
0O
0`
1c
06
0r
0P
0u
0a
1w
1d
#285000
1"
1M
1N
16
#290000
b10111101 #
1O
06
1r
1P
#300000
b10110100 !
b11110100 !
b11100100 !
1%
b11100000 !
b10111111 #
0"
b10111110 #
1V
0O
1`
0\
0Y
1W
1U
0M
0N
16
1X
0r
0P
1u
1a
1]
1s
#310000
b10111111 #
1O
06
1r
1P
#315000
1"
1M
1N
16
1!!
1{
1z
1y
1x
1v
1t
1L
1J
1I
1H
1G
1F
1E
1&
1(
1)
1*
1+
1,
1-
#320000
b11111111 #
b11011111 #
b11001111 #
b11000111 #
b11000011 #
b11000001 #
b11000000 #
0O
0`
0c
0f
0h
0j
1l
06
0r
0P
0u
0a
0w
0d
1|
1m
#330000
b11100001 !
0"
b11000001 #
0M
1O
1S
0N
16
1r
1P
0s
1^
#340000
b11000011 #
b11000010 #
0O
1`
06
0r
0P
1u
1a
#345000
1"
1M
1N
16
1q
1n
1b
1D
1C
1>
1.
1/
14
#350000
b11000011 #
1O
06
1r
1P
#360000
b11100011 !
b11000111 #
b11100010 !
b11000101 #
0"
b11000100 #
0O
0`
1c
0S
1Z
0M
0N
16
0r
0P
0u
0a
1w
1d
1s
0^
0]
0s
#370000
b11000101 #
1O
06
1r
1P
#375000
1"
1M
1N
16
#380000
b11000111 #
b11000110 #
0O
1`
06
0r
0P
1u
1a
#390000
b10100010 !
0%
b10100000 !
0"
b11000111 #
0V
0M
1O
0Z
0W
0N
16
0X
1r
1P
1]
#400000
b11001111 #
b11001011 #
b11001001 #
b11001000 #
0O
0`
0c
1f
06
0r
0P
0u
0a
0w
0d
#405000
1"
1M
1N
16
#410000
b11001001 #
1O
06
1r
1P
#420000
b10100001 !
b11001011 #
0"
b11001010 #
0O
1`
1S
0M
0N
16
0r
0P
1u
1a
#430000
b11001011 #
1O
06
1r
1P
#435000
1"
1M
1N
16
#440000
b11001111 #
b11001101 #
b11001100 #
0O
0`
1c
06
0r
0P
0u
0a
1w
1d
#450000
b10100011 !
b10100010 !
0"
b11001101 #
0M
1O
0S
1Z
0N
16
1r
1P
0]
#460000
b11001111 #
b11001110 #
0O
1`
06
0r
0P
1u
1a
#465000
1"
1M
1N
16
#470000
b11001111 #
1O
06
1r
1P
#480000
b10000010 !
b10 !
b11011111 #
b11010111 #
b11010011 #
b0 !
b11010001 #
0"
b11010000 #
0O
0`
0c
0f
1h
0Z
0T
0U
0M
0N
16
0r
0P
0u
0a
0w
0d
1]
#490000
b11010001 #
1O
06
1r
1P
#495000
1"
1M
1N
16
#500000
b11010011 #
b11010010 #
0O
1`
06
0r
0P
1u
1a
#510000
0"
b11010011 #
0M
1O
0N
16
1r
1P
#520000
b11010111 #
b11010101 #
b11010100 #
0O
0`
1c
06
0r
0P
0u
0a
1w
1d
#525000
1"
1M
1N
16
#530000
b11010101 #
1O
06
1r
1P
#540000
b11010111 #
0"
b11010110 #
0O
1`
0M
0N
16
0r
0P
1u
1a
#550000
b11010111 #
1O
06
1r
1P
#555000
1"
1M
1N
16
#560000
b11011111 #
b11011011 #
b11011001 #
b11011000 #
0O
0`
0c
1f
06
0r
0P
0u
0a
0w
0d
#570000
0"
b11011001 #
0M
1O
0N
16
1r
1P
#580000
b11011011 #
b11011010 #
0O
1`
06
0r
0P
1u
1a
#585000
1"
1M
1N
16
#590000
b11011011 #
1O
06
1r
1P
#600000
b11011111 #
b11011101 #
0"
b11011100 #
0O
0`
1c
0M
0N
16
0r
0P
0u
0a
1w
1d
#610000
b11011101 #
1O
06
1r
1P
#615000
1"
1M
1N
16
#620000
b11011111 #
b11011110 #
0O
1`
06
0r
0P
1u
1a
#630000
0"
b11011111 #
0M
1O
0N
16
1r
1P
#640000
b11111111 #
b11101111 #
b11100111 #
b11100011 #
b11100001 #
b11100000 #
0O
0`
0c
0f
0h
1j
06
0r
0P
0u
0a
0w
0d
#645000
1"
1M
1N
16
#650000
b11100001 #
1O
06
1r
1P
#660000
b11100011 #
0"
b11100010 #
0O
1`
0M
0N
16
0r
0P
1u
1a
#670000
b11100011 #
1O
06
1r
1P
#675000
1"
1M
1N
16
#680000
b11100111 #
b11100101 #
b11100100 #
0O
0`
1c
06
0r
0P
0u
0a
1w
1d
#690000
0"
b11100101 #
0M
1O
0N
16
1r
1P
#700000
b11100111 #
b11100110 #
0O
1`
06
0r
0P
1u
1a
#705000
1"
1M
1N
16
#710000
b11100111 #
1O
06
1r
1P
#720000
b11101111 #
b11101011 #
b11101001 #
0"
b11101000 #
0O
0`
0c
1f
0M
0N
16
0r
0P
0u
0a
0w
0d
#730000
b11101001 #
1O
06
1r
1P
#735000
1"
1M
1N
16
#740000
b11101011 #
b11101010 #
0O
1`
06
0r
0P
1u
1a
#750000
0"
b11101011 #
0M
1O
0N
16
1r
1P
#760000
b11101111 #
b11101101 #
b11101100 #
0O
0`
1c
06
0r
0P
0u
0a
1w
1d
#765000
1"
1M
1N
16
#770000
b11101101 #
1O
06
1r
1P
#780000
b11101111 #
0"
b11101110 #
0O
1`
0M
0N
16
0r
0P
1u
1a
#790000
b11101111 #
1O
06
1r
1P
#795000
1"
1M
1N
16
#800000
b11111111 #
b11110111 #
b11110011 #
b11110001 #
b11110000 #
0O
0`
0c
0f
1h
06
0r
0P
0u
0a
0w
0d
#810000
0"
b11110001 #
0M
1O
0N
16
1r
1P
#820000
b11110011 #
b11110010 #
0O
1`
06
0r
0P
1u
1a
#825000
1"
1M
1N
16
#830000
b11110011 #
1O
06
1r
1P
#840000
b11110111 #
b11110101 #
0"
b11110100 #
0O
0`
1c
0M
0N
16
0r
0P
0u
0a
1w
1d
#850000
b11110101 #
1O
06
1r
1P
#855000
1"
1M
1N
16
#860000
b11110111 #
b11110110 #
0O
1`
06
0r
0P
1u
1a
#870000
0"
b11110111 #
0M
1O
0N
16
1r
1P
#880000
b11111111 #
b11111011 #
b11111001 #
b11111000 #
0O
0`
0c
1f
06
0r
0P
0u
0a
0w
0d
#885000
1"
1M
1N
16
#890000
b11111001 #
1O
06
1r
1P
#900000
b11111011 #
0"
b11111010 #
0O
1`
0M
0N
16
0r
0P
1u
1a
#910000
b11111011 #
1O
06
1r
1P
#915000
1"
1M
1N
16
#920000
b11111111 #
b11111101 #
b11111100 #
0O
0`
1c
06
0r
0P
0u
0a
1w
1d
#930000
0"
b11111101 #
0M
1O
0N
16
1r
1P
#940000
b11111111 #
b11111110 #
0O
1`
06
0r
0P
1u
1a
#945000
1"
1M
1N
16
#950000
b11111111 #
1O
06
1r
1P
#960000
b1111111 #
b111111 #
b11111 #
b1111 #
b111 #
b11 #
b1 #
0"
b0 #
0O
0`
0c
0f
0h
0j
0l
0o
0M
0N
16
0r
0P
0u
0a
0w
0d
0|
0m
0~
0p
#970000
b1 #
1O
06
1r
1P
#975000
1"
1M
1N
16
#980000
b11 #
b10 #
0O
1`
06
0r
0P
1u
1a
#990000
0"
b11 #
0M
1O
0N
16
1r
1P
